            clip num hidden  ...       velx       vely      speed
0  L0541bf13.mp4   1      L  ...  51.822824   6.300580  52.204429
1  L0541bf13.mp4   2      L  ... -59.894084 -11.807504  61.046854
2  L0541bf13.mp4   3      L  ...  63.310492   9.991096  64.093996
3  L0541bf13.mp4   4      L  ... -13.322702 -30.677298  33.445344
4  L0541bf13.mp4   5      L  ...  15.039627  31.687646  35.075594
5  L0541bf13.mp4   6      L  ... -71.090909 -18.647858  73.495986
6  L0541bf13.mp4   7      L  ...  16.463768  15.794103  22.814674
7  L0541bf13.mp4   8      L  ...  59.863915  -5.211987  60.090375
8  L0541bf13.mp4   9      L  ... -80.031387  -0.434819  80.032569
9  L0541bf13.mp4  10      L  ...  62.770370  14.026102  64.318356

[10 rows x 8 columns]
              posx         posy         velx         vely        speed
count  6403.000000  6403.000000  6403.000000  6403.000000  6403.000000
mean    155.843305   140.703721     0.250295     0.121611    78.996701
std      59.939229    33.458010    89.558980    36.732993    55.935210
min      12.000000     2.000000  -354.000000  -233.333333     0.000000
25%     111.845926   122.225000   -62.515889   -18.790293    29.546887
50%     134.744186   140.666667    -0.166667    -0.130233    73.744797
75%     194.258333   159.850168    63.444886    19.168574   112.034996
max     432.000000   282.000000   318.250000   203.000000   377.481208
========================LIE===============================
              posx         posy         velx         vely        speed
count  2250.000000  2250.000000  2250.000000  2250.000000  2250.000000
mean    160.607318   143.589485     0.252647     0.148388    81.370600
std      61.921102    32.980478    93.217011    34.949441    57.330986
min      26.000000     5.000000  -271.571429  -146.000000     0.000000
25%     115.357143   126.544480   -64.559529   -18.743383    32.387059
50%     139.016667   145.384242    -0.019048    -0.091940    74.190631
75%     199.901538   162.795652    65.830435    18.043270   112.972052
max     402.000000   262.000000   276.270833   171.333333   295.499526
========================TRUE==============================
              posx         posy         velx         vely        speed
count  4153.000000  4153.000000  4153.000000  4153.000000  4153.000000
mean    153.262273   139.140281     0.249020     0.107104    77.710577
std      58.683859    33.614513    87.524764    37.668142    55.128563
min      12.000000     2.000000  -354.000000  -233.333333     0.818838
25%     109.777778   120.338983   -61.072917   -18.790476    28.250751
50%     133.261905   138.187500    -0.318182    -0.159420    73.480308
75%     190.827586   157.675676    62.555556    19.640000   111.544251
max     432.000000   282.000000   318.250000   203.000000   377.481208
